…
    phyloseq-class experiment-level object
    otu_table()   OTU Table:         [ 9467 taxa and 86 samples ]
    sample_data() Sample Data:       [ 86 samples by 7 sample variables ]




```python
%%R
sample_tab %>% add_rownames("Sample")
```


    # A tibble: 184 × 8
         Sample Sample_number X96.Well.Plate.Location Sample.Amount
          <chr>         <int>                   <chr>         <chr>
    1    CF1_CF             1                P1 - E12          1 mL
    2    CF2_CF             2                P1 - F12          1 mL
    3  X8106_PC             3                 P1 - A1      0.1145 g
    4  X8532_CF             4                 P2 - A1          2 mL
    5  X8533_TF             5                 P1 - B1       0.109 g
    6   X8534_G             6                 P1 - C1      0.1306 g
    7  X8535_PC             7                 P1 - D1      0.1013 g
    8  X8507_CF             8                 P2 - B1          2 mL
    9  X8508_TF             9                 P1 - E1      0.1078 g
    10  X8509_G            10                 P1 - F1      0.1069 g
    # ... with 174 more rows, and 4 more variables: Genus.Species <chr>,
    #   Sample.Type <chr>, star <chr>, location <chr>
…
